{"data":{"collectionInfo":{"__typename":"CategoriesJson","id":"e44d76c3-fcda-53d9-a852-4e7fb1c8b447","name":"News","slug":"/category/news/","description":"Lorem ipsum dolor sit amet, consectetur adipiscing elit, sed do eiusmod tempor incididunt ut labore."},"posts":{"nodes":[{"__typename":"MdxArticleProxy","id":"7f2ad87e-d4cb-5f41-b824-e5b2d9b170f2","title":"Iowa Voted A Racist Out Of Congress","slug":"/iowa-voted-a-racist-out-of-congress/","link":null,"excerpt":"Lorem markdownum illic venturi instructa nobis Echidnae,  cum  quid magna\nfatebor. Levat placetque…","timeToRead":1,"featured":null,"thumbnailText":null,"date":"April 16, 2019","category":{"__typename":"CategoriesJson","id":"e44d76c3-fcda-53d9-a852-4e7fb1c8b447","name":"News","slug":"/category/news/","color":"#e9d8fd","icon":"/static/93c9c75517e1a6e95deaecabf3d1d050/news.svg"},"author":{"__typename":"AuthorsJson","id":"4acc0efc-1597-5e4a-8305-ff5411d3befc","name":"Steve Grant","slug":"/author/steve-grant/","title":"Product Designer","description":"Sed commodo, est quis maximus fermentum, massa ipsum euismod neque, in varius risus tellus quis lacus. Sed ac bibendum odio.","skills":["Public Relation","Market Analyst","Designer"],"social":[{"name":"Instagram","url":"https://instagram.com/instagram"},{"name":"Twitter","url":"https://twitter.com/twitter"},{"name":"Website","url":"https://example.com"}],"thumbnail":{"__typename":"ImageSharp","regular":{"width":150,"height":150,"src":"/static/05d0ac7130e48a9a86ba018fac3dbe2d/97df7/steve-grant.png","srcSet":"/static/05d0ac7130e48a9a86ba018fac3dbe2d/97df7/steve-grant.png 1x,\n/static/05d0ac7130e48a9a86ba018fac3dbe2d/81b80/steve-grant.png 1.5x,\n/static/05d0ac7130e48a9a86ba018fac3dbe2d/bb938/steve-grant.png 2x"}}},"thumbnail":{"__typename":"ImageSharp","vertical":{"src":"/static/a381cbe123484c239b97a005d5ce4a00/8f7be/image.jpg","srcSet":"/static/a381cbe123484c239b97a005d5ce4a00/8f7be/image.jpg 1x,\n/static/a381cbe123484c239b97a005d5ce4a00/1af80/image.jpg 1.5x,\n/static/a381cbe123484c239b97a005d5ce4a00/1acf6/image.jpg 2x","srcWebp":"/static/a381cbe123484c239b97a005d5ce4a00/03323/image.webp","srcSetWebp":"/static/a381cbe123484c239b97a005d5ce4a00/03323/image.webp 1x,\n/static/a381cbe123484c239b97a005d5ce4a00/c8e9c/image.webp 1.5x,\n/static/a381cbe123484c239b97a005d5ce4a00/e7f4c/image.webp 2x","width":380,"height":290},"hero":{"src":"/static/a381cbe123484c239b97a005d5ce4a00/a8483/image.jpg","srcSet":"/static/a381cbe123484c239b97a005d5ce4a00/a8483/image.jpg 1x","srcWebp":"/static/a381cbe123484c239b97a005d5ce4a00/7330c/image.webp","srcSetWebp":"/static/a381cbe123484c239b97a005d5ce4a00/7330c/image.webp 1x","width":1600,"height":650}}},{"__typename":"MdxArticleProxy","id":"a75bb6b5-8285-5f21-9ff2-00a4e2c9770b","title":"Instagram Influencing Has Long Had A Diversity Problem","slug":"/instagram-influencing-has-long-had-a-diversity-problem/","link":null,"excerpt":"Primo in altis pelle alumnae Lorem markdownum obvius in seque opus, est bicorni forte; laeva…","timeToRead":1,"featured":null,"thumbnailText":null,"date":"April 16, 2019","category":{"__typename":"CategoriesJson","id":"e44d76c3-fcda-53d9-a852-4e7fb1c8b447","name":"News","slug":"/category/news/","color":"#e9d8fd","icon":"/static/93c9c75517e1a6e95deaecabf3d1d050/news.svg"},"author":{"__typename":"AuthorsJson","id":"4ad4a498-7b5a-581a-adf4-e2a010ee2050","name":"Jane Smith","slug":"/author/jane-smith/","title":"Creative Designer","description":"Sed commodo, est quis maximus fermentum, massa ipsum euismod neque, in varius risus tellus quis lacus. Sed ac bibendum odio.","skills":["Advertising","Business","Designer"],"social":[{"name":"Instagram","url":"https://instagram.com/instagram"},{"name":"Twitter","url":"https://twitter.com/twitter"},{"name":"Website","url":"https://example.com"}],"thumbnail":{"__typename":"ImageSharp","regular":{"width":150,"height":150,"src":"/static/ec552a7c1f96030de0601b3b204b16cf/97df7/jane-smith.png","srcSet":"/static/ec552a7c1f96030de0601b3b204b16cf/97df7/jane-smith.png 1x,\n/static/ec552a7c1f96030de0601b3b204b16cf/81b80/jane-smith.png 1.5x,\n/static/ec552a7c1f96030de0601b3b204b16cf/bb938/jane-smith.png 2x"}}},"thumbnail":{"__typename":"ImageSharp","vertical":{"src":"/static/a381cbe123484c239b97a005d5ce4a00/8f7be/image.jpg","srcSet":"/static/a381cbe123484c239b97a005d5ce4a00/8f7be/image.jpg 1x,\n/static/a381cbe123484c239b97a005d5ce4a00/1af80/image.jpg 1.5x,\n/static/a381cbe123484c239b97a005d5ce4a00/1acf6/image.jpg 2x","srcWebp":"/static/a381cbe123484c239b97a005d5ce4a00/03323/image.webp","srcSetWebp":"/static/a381cbe123484c239b97a005d5ce4a00/03323/image.webp 1x,\n/static/a381cbe123484c239b97a005d5ce4a00/c8e9c/image.webp 1.5x,\n/static/a381cbe123484c239b97a005d5ce4a00/e7f4c/image.webp 2x","width":380,"height":290},"hero":{"src":"/static/a381cbe123484c239b97a005d5ce4a00/a8483/image.jpg","srcSet":"/static/a381cbe123484c239b97a005d5ce4a00/a8483/image.jpg 1x","srcWebp":"/static/a381cbe123484c239b97a005d5ce4a00/7330c/image.webp","srcSetWebp":"/static/a381cbe123484c239b97a005d5ce4a00/7330c/image.webp 1x","width":1600,"height":650}}},{"__typename":"MdxArticleProxy","id":"0f78686b-336f-514c-858b-c69aedd67b1f","title":"A Lot Of Celebrities Are Being Useless Right Now","slug":"/a-lot-of-celebrities-are-being-useless-right-now/","link":null,"excerpt":"Lorem markdownum illic venturi instructa nobis Echidnae,  cum  quid magna\nfatebor. Levat placetque…","timeToRead":1,"featured":null,"thumbnailText":null,"date":"April 16, 2019","category":{"__typename":"CategoriesJson","id":"e44d76c3-fcda-53d9-a852-4e7fb1c8b447","name":"News","slug":"/category/news/","color":"#e9d8fd","icon":"/static/93c9c75517e1a6e95deaecabf3d1d050/news.svg"},"author":{"__typename":"AuthorsJson","id":"4acc0efc-1597-5e4a-8305-ff5411d3befc","name":"Steve Grant","slug":"/author/steve-grant/","title":"Product Designer","description":"Sed commodo, est quis maximus fermentum, massa ipsum euismod neque, in varius risus tellus quis lacus. Sed ac bibendum odio.","skills":["Public Relation","Market Analyst","Designer"],"social":[{"name":"Instagram","url":"https://instagram.com/instagram"},{"name":"Twitter","url":"https://twitter.com/twitter"},{"name":"Website","url":"https://example.com"}],"thumbnail":{"__typename":"ImageSharp","regular":{"width":150,"height":150,"src":"/static/05d0ac7130e48a9a86ba018fac3dbe2d/97df7/steve-grant.png","srcSet":"/static/05d0ac7130e48a9a86ba018fac3dbe2d/97df7/steve-grant.png 1x,\n/static/05d0ac7130e48a9a86ba018fac3dbe2d/81b80/steve-grant.png 1.5x,\n/static/05d0ac7130e48a9a86ba018fac3dbe2d/bb938/steve-grant.png 2x"}}},"thumbnail":{"__typename":"ImageSharp","vertical":{"src":"/static/a381cbe123484c239b97a005d5ce4a00/8f7be/image.jpg","srcSet":"/static/a381cbe123484c239b97a005d5ce4a00/8f7be/image.jpg 1x,\n/static/a381cbe123484c239b97a005d5ce4a00/1af80/image.jpg 1.5x,\n/static/a381cbe123484c239b97a005d5ce4a00/1acf6/image.jpg 2x","srcWebp":"/static/a381cbe123484c239b97a005d5ce4a00/03323/image.webp","srcSetWebp":"/static/a381cbe123484c239b97a005d5ce4a00/03323/image.webp 1x,\n/static/a381cbe123484c239b97a005d5ce4a00/c8e9c/image.webp 1.5x,\n/static/a381cbe123484c239b97a005d5ce4a00/e7f4c/image.webp 2x","width":380,"height":290},"hero":{"src":"/static/a381cbe123484c239b97a005d5ce4a00/a8483/image.jpg","srcSet":"/static/a381cbe123484c239b97a005d5ce4a00/a8483/image.jpg 1x","srcWebp":"/static/a381cbe123484c239b97a005d5ce4a00/7330c/image.webp","srcSetWebp":"/static/a381cbe123484c239b97a005d5ce4a00/7330c/image.webp 1x","width":1600,"height":650}}},{"__typename":"MdxArticleProxy","id":"0104003d-62ff-5c6c-94e9-c8768de5d7d4","title":"Authorities Investigating The Huxley Stauffer Case","slug":"/authorities-investigating-the-huxley-stauffer-case/","link":null,"excerpt":"Dona curvo sub evertere quam ultimus aridus Lorem markdownum , sub tecumque, posceret revertar…","timeToRead":1,"featured":null,"thumbnailText":null,"date":"April 16, 2019","category":{"__typename":"CategoriesJson","id":"e44d76c3-fcda-53d9-a852-4e7fb1c8b447","name":"News","slug":"/category/news/","color":"#e9d8fd","icon":"/static/93c9c75517e1a6e95deaecabf3d1d050/news.svg"},"author":{"__typename":"AuthorsJson","id":"c02f1ac5-d150-5784-b6aa-358d5cf4f62b","name":"John Doe","slug":"/author/john-doe/","title":"Web Developer","description":"Sed commodo, est quis maximus fermentum, massa ipsum euismod neque, in varius risus tellus quis lacus. Sed ac bibendum odio.","skills":["ASP.NET","Assembly","JavaScript"],"social":[{"name":"Instagram","url":"https://instagram.com/instagram"},{"name":"Twitter","url":"https://twitter.com/twitter"},{"name":"Website","url":"https://example.com"}],"thumbnail":{"__typename":"ImageSharp","regular":{"width":150,"height":150,"src":"/static/011b3215b6b7e782f02d67aebfa4c319/97df7/john-doe.png","srcSet":"/static/011b3215b6b7e782f02d67aebfa4c319/97df7/john-doe.png 1x,\n/static/011b3215b6b7e782f02d67aebfa4c319/81b80/john-doe.png 1.5x,\n/static/011b3215b6b7e782f02d67aebfa4c319/bb938/john-doe.png 2x"}}},"thumbnail":{"__typename":"ImageSharp","vertical":{"src":"/static/a381cbe123484c239b97a005d5ce4a00/8f7be/image.jpg","srcSet":"/static/a381cbe123484c239b97a005d5ce4a00/8f7be/image.jpg 1x,\n/static/a381cbe123484c239b97a005d5ce4a00/1af80/image.jpg 1.5x,\n/static/a381cbe123484c239b97a005d5ce4a00/1acf6/image.jpg 2x","srcWebp":"/static/a381cbe123484c239b97a005d5ce4a00/03323/image.webp","srcSetWebp":"/static/a381cbe123484c239b97a005d5ce4a00/03323/image.webp 1x,\n/static/a381cbe123484c239b97a005d5ce4a00/c8e9c/image.webp 1.5x,\n/static/a381cbe123484c239b97a005d5ce4a00/e7f4c/image.webp 2x","width":380,"height":290},"hero":{"src":"/static/a381cbe123484c239b97a005d5ce4a00/a8483/image.jpg","srcSet":"/static/a381cbe123484c239b97a005d5ce4a00/a8483/image.jpg 1x","srcWebp":"/static/a381cbe123484c239b97a005d5ce4a00/7330c/image.webp","srcSetWebp":"/static/a381cbe123484c239b97a005d5ce4a00/7330c/image.webp 1x","width":1600,"height":650}}},{"__typename":"MdxArticleProxy","id":"99033fd6-b3de-5cd7-960a-062be8ec4bf8","title":"An 18 Year Old Said She Was Raped While In Police Custody","slug":"/an-18-year-old-said-she-was-raped-while-in-police-custody/","link":null,"excerpt":"Primo in altis pelle alumnae Lorem markdownum obvius in seque opus, est bicorni forte; laeva…","timeToRead":1,"featured":null,"thumbnailText":null,"date":"April 16, 2019","category":{"__typename":"CategoriesJson","id":"e44d76c3-fcda-53d9-a852-4e7fb1c8b447","name":"News","slug":"/category/news/","color":"#e9d8fd","icon":"/static/93c9c75517e1a6e95deaecabf3d1d050/news.svg"},"author":{"__typename":"AuthorsJson","id":"c02f1ac5-d150-5784-b6aa-358d5cf4f62b","name":"John Doe","slug":"/author/john-doe/","title":"Web Developer","description":"Sed commodo, est quis maximus fermentum, massa ipsum euismod neque, in varius risus tellus quis lacus. Sed ac bibendum odio.","skills":["ASP.NET","Assembly","JavaScript"],"social":[{"name":"Instagram","url":"https://instagram.com/instagram"},{"name":"Twitter","url":"https://twitter.com/twitter"},{"name":"Website","url":"https://example.com"}],"thumbnail":{"__typename":"ImageSharp","regular":{"width":150,"height":150,"src":"/static/011b3215b6b7e782f02d67aebfa4c319/97df7/john-doe.png","srcSet":"/static/011b3215b6b7e782f02d67aebfa4c319/97df7/john-doe.png 1x,\n/static/011b3215b6b7e782f02d67aebfa4c319/81b80/john-doe.png 1.5x,\n/static/011b3215b6b7e782f02d67aebfa4c319/bb938/john-doe.png 2x"}}},"thumbnail":{"__typename":"ImageSharp","vertical":{"src":"/static/a381cbe123484c239b97a005d5ce4a00/8f7be/image.jpg","srcSet":"/static/a381cbe123484c239b97a005d5ce4a00/8f7be/image.jpg 1x,\n/static/a381cbe123484c239b97a005d5ce4a00/1af80/image.jpg 1.5x,\n/static/a381cbe123484c239b97a005d5ce4a00/1acf6/image.jpg 2x","srcWebp":"/static/a381cbe123484c239b97a005d5ce4a00/03323/image.webp","srcSetWebp":"/static/a381cbe123484c239b97a005d5ce4a00/03323/image.webp 1x,\n/static/a381cbe123484c239b97a005d5ce4a00/c8e9c/image.webp 1.5x,\n/static/a381cbe123484c239b97a005d5ce4a00/e7f4c/image.webp 2x","width":380,"height":290},"hero":{"src":"/static/a381cbe123484c239b97a005d5ce4a00/a8483/image.jpg","srcSet":"/static/a381cbe123484c239b97a005d5ce4a00/a8483/image.jpg 1x","srcWebp":"/static/a381cbe123484c239b97a005d5ce4a00/7330c/image.webp","srcSetWebp":"/static/a381cbe123484c239b97a005d5ce4a00/7330c/image.webp 1x","width":1600,"height":650}}}],"pageInfo":{"pageCount":2,"hasPreviousPage":true,"hasNextPage":false,"currentPage":2},"totalCount":11}},"pageContext":{"slug":"/category/news/","limit":6,"skip":6,"collectionType":"category","paginatePostsPage":false,"basePath":"/","services":{"algolia":false,"mailchimp":false,"disqus":false},"siteUrl":null,"mobileMenu":{"title":"Topics","items":[{"name":"News","slug":"/category/news/"},{"name":"Recipes","slug":"/category/recipes/"},{"name":"Shopping","slug":"/category/shopping/"},{"name":"TV & Movies","slug":"/category/tv-and-movies/"}]},"darkMode":true}}