{"componentChunkName":"component---packages-blog-core-src-templates-collection-tag-js","path":"/tag/agency/page/3/","result":{"data":{"collectionInfo":{"id":"853903ab-6fa6-58de-b05e-cd9904325aa5","name":"#agency","slug":"/tag/agency/"},"posts":{"nodes":[{"__typename":"MdxArticleProxy","id":"c94ae074-ace1-5655-8b0f-b47efac8d7db","title":"TRY THIS 9 Mesmerizing Cake Recipes","slug":"/try-this-9-mesmerizing-cake-recipes/","link":null,"excerpt":"Lorem markdownum transitque nondum, Peliaeque at poterat exegit, urbis quo;\ntibi. Cursus mecum adit…","timeToRead":1,"featured":true,"thumbnailText":null,"date":"April 16, 2019","category":{"__typename":"CategoriesJson","id":"4fcd21c8-cac1-5e75-ac96-974eefccde01","name":"Recipes","slug":"/category/recipes/","color":"#c6f6d5","icon":"/static/1de85bbd781531b61bf5a25b83d72d32/recipes.svg"},"author":{"__typename":"AuthorsJson","id":"c02f1ac5-d150-5784-b6aa-358d5cf4f62b","name":"John Doe","slug":"/author/john-doe/","title":"Web Developer","description":"Sed commodo, est quis maximus fermentum, massa ipsum euismod neque, in varius risus tellus quis lacus. Sed ac bibendum odio.","skills":["ASP.NET","Assembly","JavaScript"],"social":[{"name":"Instagram","url":"https://instagram.com/instagram"},{"name":"Twitter","url":"https://twitter.com/twitter"},{"name":"Website","url":"https://example.com"}],"thumbnail":{"__typename":"ImageSharp","regular":{"width":150,"height":150,"src":"/static/011b3215b6b7e782f02d67aebfa4c319/97df7/john-doe.png","srcSet":"/static/011b3215b6b7e782f02d67aebfa4c319/97df7/john-doe.png 1x,\n/static/011b3215b6b7e782f02d67aebfa4c319/81b80/john-doe.png 1.5x,\n/static/011b3215b6b7e782f02d67aebfa4c319/bb938/john-doe.png 2x"}}},"thumbnail":{"__typename":"ImageSharp","vertical":{"src":"/static/a381cbe123484c239b97a005d5ce4a00/8f7be/image.jpg","srcSet":"/static/a381cbe123484c239b97a005d5ce4a00/8f7be/image.jpg 1x,\n/static/a381cbe123484c239b97a005d5ce4a00/1af80/image.jpg 1.5x,\n/static/a381cbe123484c239b97a005d5ce4a00/1acf6/image.jpg 2x","srcWebp":"/static/a381cbe123484c239b97a005d5ce4a00/03323/image.webp","srcSetWebp":"/static/a381cbe123484c239b97a005d5ce4a00/03323/image.webp 1x,\n/static/a381cbe123484c239b97a005d5ce4a00/c8e9c/image.webp 1.5x,\n/static/a381cbe123484c239b97a005d5ce4a00/e7f4c/image.webp 2x","width":380,"height":290},"hero":{"src":"/static/a381cbe123484c239b97a005d5ce4a00/a8483/image.jpg","srcSet":"/static/a381cbe123484c239b97a005d5ce4a00/a8483/image.jpg 1x","srcWebp":"/static/a381cbe123484c239b97a005d5ce4a00/7330c/image.webp","srcSetWebp":"/static/a381cbe123484c239b97a005d5ce4a00/7330c/image.webp 1x","width":1600,"height":650}}},{"__typename":"MdxArticleProxy","id":"178436fe-aa5f-52b1-9349-bcfb340b23c2","title":"I Made 3 Meals With Only 5 Ingredients","slug":"/i-made-3-meals-with-only-5-ingredients/","link":null,"excerpt":"Lorem markdownum illic venturi instructa nobis Echidnae,  cum  quid magna\nfatebor. Levat placetque…","timeToRead":1,"featured":null,"thumbnailText":null,"date":"April 16, 2019","category":{"__typename":"CategoriesJson","id":"4fcd21c8-cac1-5e75-ac96-974eefccde01","name":"Recipes","slug":"/category/recipes/","color":"#c6f6d5","icon":"/static/1de85bbd781531b61bf5a25b83d72d32/recipes.svg"},"author":{"__typename":"AuthorsJson","id":"4acc0efc-1597-5e4a-8305-ff5411d3befc","name":"Steve Grant","slug":"/author/steve-grant/","title":"Product Designer","description":"Sed commodo, est quis maximus fermentum, massa ipsum euismod neque, in varius risus tellus quis lacus. Sed ac bibendum odio.","skills":["Public Relation","Market Analyst","Designer"],"social":[{"name":"Instagram","url":"https://instagram.com/instagram"},{"name":"Twitter","url":"https://twitter.com/twitter"},{"name":"Website","url":"https://example.com"}],"thumbnail":{"__typename":"ImageSharp","regular":{"width":150,"height":150,"src":"/static/05d0ac7130e48a9a86ba018fac3dbe2d/97df7/steve-grant.png","srcSet":"/static/05d0ac7130e48a9a86ba018fac3dbe2d/97df7/steve-grant.png 1x,\n/static/05d0ac7130e48a9a86ba018fac3dbe2d/81b80/steve-grant.png 1.5x,\n/static/05d0ac7130e48a9a86ba018fac3dbe2d/bb938/steve-grant.png 2x"}}},"thumbnail":{"__typename":"ImageSharp","vertical":{"src":"/static/a381cbe123484c239b97a005d5ce4a00/8f7be/image.jpg","srcSet":"/static/a381cbe123484c239b97a005d5ce4a00/8f7be/image.jpg 1x,\n/static/a381cbe123484c239b97a005d5ce4a00/1af80/image.jpg 1.5x,\n/static/a381cbe123484c239b97a005d5ce4a00/1acf6/image.jpg 2x","srcWebp":"/static/a381cbe123484c239b97a005d5ce4a00/03323/image.webp","srcSetWebp":"/static/a381cbe123484c239b97a005d5ce4a00/03323/image.webp 1x,\n/static/a381cbe123484c239b97a005d5ce4a00/c8e9c/image.webp 1.5x,\n/static/a381cbe123484c239b97a005d5ce4a00/e7f4c/image.webp 2x","width":380,"height":290},"hero":{"src":"/static/a381cbe123484c239b97a005d5ce4a00/a8483/image.jpg","srcSet":"/static/a381cbe123484c239b97a005d5ce4a00/a8483/image.jpg 1x","srcWebp":"/static/a381cbe123484c239b97a005d5ce4a00/7330c/image.webp","srcSetWebp":"/static/a381cbe123484c239b97a005d5ce4a00/7330c/image.webp 1x","width":1600,"height":650}}},{"__typename":"MdxArticleProxy","id":"3d72a9cd-1dbd-5b2d-be31-2a04d9c05565","title":"Easy Slow Cooker Chili Cheese Fries","slug":"/easy-slow-cooker-chili-cheese-fries/","link":null,"excerpt":"Primo in altis pelle alumnae Lorem markdownum obvius in seque opus, est bicorni forte; laeva…","timeToRead":1,"featured":null,"thumbnailText":null,"date":"April 16, 2019","category":{"__typename":"CategoriesJson","id":"4fcd21c8-cac1-5e75-ac96-974eefccde01","name":"Recipes","slug":"/category/recipes/","color":"#c6f6d5","icon":"/static/1de85bbd781531b61bf5a25b83d72d32/recipes.svg"},"author":{"__typename":"AuthorsJson","id":"4acc0efc-1597-5e4a-8305-ff5411d3befc","name":"Steve Grant","slug":"/author/steve-grant/","title":"Product Designer","description":"Sed commodo, est quis maximus fermentum, massa ipsum euismod neque, in varius risus tellus quis lacus. Sed ac bibendum odio.","skills":["Public Relation","Market Analyst","Designer"],"social":[{"name":"Instagram","url":"https://instagram.com/instagram"},{"name":"Twitter","url":"https://twitter.com/twitter"},{"name":"Website","url":"https://example.com"}],"thumbnail":{"__typename":"ImageSharp","regular":{"width":150,"height":150,"src":"/static/05d0ac7130e48a9a86ba018fac3dbe2d/97df7/steve-grant.png","srcSet":"/static/05d0ac7130e48a9a86ba018fac3dbe2d/97df7/steve-grant.png 1x,\n/static/05d0ac7130e48a9a86ba018fac3dbe2d/81b80/steve-grant.png 1.5x,\n/static/05d0ac7130e48a9a86ba018fac3dbe2d/bb938/steve-grant.png 2x"}}},"thumbnail":{"__typename":"ImageSharp","vertical":{"src":"/static/a381cbe123484c239b97a005d5ce4a00/8f7be/image.jpg","srcSet":"/static/a381cbe123484c239b97a005d5ce4a00/8f7be/image.jpg 1x,\n/static/a381cbe123484c239b97a005d5ce4a00/1af80/image.jpg 1.5x,\n/static/a381cbe123484c239b97a005d5ce4a00/1acf6/image.jpg 2x","srcWebp":"/static/a381cbe123484c239b97a005d5ce4a00/03323/image.webp","srcSetWebp":"/static/a381cbe123484c239b97a005d5ce4a00/03323/image.webp 1x,\n/static/a381cbe123484c239b97a005d5ce4a00/c8e9c/image.webp 1.5x,\n/static/a381cbe123484c239b97a005d5ce4a00/e7f4c/image.webp 2x","width":380,"height":290},"hero":{"src":"/static/a381cbe123484c239b97a005d5ce4a00/a8483/image.jpg","srcSet":"/static/a381cbe123484c239b97a005d5ce4a00/a8483/image.jpg 1x","srcWebp":"/static/a381cbe123484c239b97a005d5ce4a00/7330c/image.webp","srcSetWebp":"/static/a381cbe123484c239b97a005d5ce4a00/7330c/image.webp 1x","width":1600,"height":650}}},{"__typename":"MdxArticleProxy","id":"f4a4569e-79f5-51cf-b3e1-f83db6e03544","title":"Community Easy Sweet & Spicy Air Fryer Salmon","slug":"/community-easy-sweet-and-spicy-air-fryer-salmon/","link":null,"excerpt":"Primo in altis pelle alumnae Lorem markdownum obvius in seque opus, est bicorni forte; laeva…","timeToRead":1,"featured":null,"thumbnailText":null,"date":"April 16, 2019","category":{"__typename":"CategoriesJson","id":"4fcd21c8-cac1-5e75-ac96-974eefccde01","name":"Recipes","slug":"/category/recipes/","color":"#c6f6d5","icon":"/static/1de85bbd781531b61bf5a25b83d72d32/recipes.svg"},"author":{"__typename":"AuthorsJson","id":"c02f1ac5-d150-5784-b6aa-358d5cf4f62b","name":"John Doe","slug":"/author/john-doe/","title":"Web Developer","description":"Sed commodo, est quis maximus fermentum, massa ipsum euismod neque, in varius risus tellus quis lacus. Sed ac bibendum odio.","skills":["ASP.NET","Assembly","JavaScript"],"social":[{"name":"Instagram","url":"https://instagram.com/instagram"},{"name":"Twitter","url":"https://twitter.com/twitter"},{"name":"Website","url":"https://example.com"}],"thumbnail":{"__typename":"ImageSharp","regular":{"width":150,"height":150,"src":"/static/011b3215b6b7e782f02d67aebfa4c319/97df7/john-doe.png","srcSet":"/static/011b3215b6b7e782f02d67aebfa4c319/97df7/john-doe.png 1x,\n/static/011b3215b6b7e782f02d67aebfa4c319/81b80/john-doe.png 1.5x,\n/static/011b3215b6b7e782f02d67aebfa4c319/bb938/john-doe.png 2x"}}},"thumbnail":{"__typename":"ImageSharp","vertical":{"src":"/static/a381cbe123484c239b97a005d5ce4a00/8f7be/image.jpg","srcSet":"/static/a381cbe123484c239b97a005d5ce4a00/8f7be/image.jpg 1x,\n/static/a381cbe123484c239b97a005d5ce4a00/1af80/image.jpg 1.5x,\n/static/a381cbe123484c239b97a005d5ce4a00/1acf6/image.jpg 2x","srcWebp":"/static/a381cbe123484c239b97a005d5ce4a00/03323/image.webp","srcSetWebp":"/static/a381cbe123484c239b97a005d5ce4a00/03323/image.webp 1x,\n/static/a381cbe123484c239b97a005d5ce4a00/c8e9c/image.webp 1.5x,\n/static/a381cbe123484c239b97a005d5ce4a00/e7f4c/image.webp 2x","width":380,"height":290},"hero":{"src":"/static/a381cbe123484c239b97a005d5ce4a00/a8483/image.jpg","srcSet":"/static/a381cbe123484c239b97a005d5ce4a00/a8483/image.jpg 1x","srcWebp":"/static/a381cbe123484c239b97a005d5ce4a00/7330c/image.webp","srcSetWebp":"/static/a381cbe123484c239b97a005d5ce4a00/7330c/image.webp 1x","width":1600,"height":650}}},{"__typename":"MdxArticleProxy","id":"0500c6e9-2114-576a-9769-86354ac16443","title":"Community Coconut And Banana Oat Muffins","slug":"/community-coconut-and-banana-oat-muffins/","link":null,"excerpt":"Lorem markdownum quisque caeli, aura niger  molitur tangam  licebit, cum quo ut\nharenae pauper, eras…","timeToRead":1,"featured":null,"thumbnailText":null,"date":"April 16, 2019","category":{"__typename":"CategoriesJson","id":"4fcd21c8-cac1-5e75-ac96-974eefccde01","name":"Recipes","slug":"/category/recipes/","color":"#c6f6d5","icon":"/static/1de85bbd781531b61bf5a25b83d72d32/recipes.svg"},"author":{"__typename":"AuthorsJson","id":"4acc0efc-1597-5e4a-8305-ff5411d3befc","name":"Steve Grant","slug":"/author/steve-grant/","title":"Product Designer","description":"Sed commodo, est quis maximus fermentum, massa ipsum euismod neque, in varius risus tellus quis lacus. Sed ac bibendum odio.","skills":["Public Relation","Market Analyst","Designer"],"social":[{"name":"Instagram","url":"https://instagram.com/instagram"},{"name":"Twitter","url":"https://twitter.com/twitter"},{"name":"Website","url":"https://example.com"}],"thumbnail":{"__typename":"ImageSharp","regular":{"width":150,"height":150,"src":"/static/05d0ac7130e48a9a86ba018fac3dbe2d/97df7/steve-grant.png","srcSet":"/static/05d0ac7130e48a9a86ba018fac3dbe2d/97df7/steve-grant.png 1x,\n/static/05d0ac7130e48a9a86ba018fac3dbe2d/81b80/steve-grant.png 1.5x,\n/static/05d0ac7130e48a9a86ba018fac3dbe2d/bb938/steve-grant.png 2x"}}},"thumbnail":{"__typename":"ImageSharp","vertical":{"src":"/static/a381cbe123484c239b97a005d5ce4a00/8f7be/image.jpg","srcSet":"/static/a381cbe123484c239b97a005d5ce4a00/8f7be/image.jpg 1x,\n/static/a381cbe123484c239b97a005d5ce4a00/1af80/image.jpg 1.5x,\n/static/a381cbe123484c239b97a005d5ce4a00/1acf6/image.jpg 2x","srcWebp":"/static/a381cbe123484c239b97a005d5ce4a00/03323/image.webp","srcSetWebp":"/static/a381cbe123484c239b97a005d5ce4a00/03323/image.webp 1x,\n/static/a381cbe123484c239b97a005d5ce4a00/c8e9c/image.webp 1.5x,\n/static/a381cbe123484c239b97a005d5ce4a00/e7f4c/image.webp 2x","width":380,"height":290},"hero":{"src":"/static/a381cbe123484c239b97a005d5ce4a00/a8483/image.jpg","srcSet":"/static/a381cbe123484c239b97a005d5ce4a00/a8483/image.jpg 1x","srcWebp":"/static/a381cbe123484c239b97a005d5ce4a00/7330c/image.webp","srcSetWebp":"/static/a381cbe123484c239b97a005d5ce4a00/7330c/image.webp 1x","width":1600,"height":650}}},{"__typename":"MdxArticleProxy","id":"08c27e5b-ef3e-5398-9d98-e31f23808331","title":"Cafemaddy Shows You 3 Creative Ways Of Using Kimchi","slug":"/cafemaddy-shows-you-3-creative-ways-of-using-kimchi/","link":null,"excerpt":"Lorem markdownum illic venturi instructa nobis Echidnae,  cum  quid magna\nfatebor. Levat placetque…","timeToRead":1,"featured":null,"thumbnailText":null,"date":"April 16, 2019","category":{"__typename":"CategoriesJson","id":"4fcd21c8-cac1-5e75-ac96-974eefccde01","name":"Recipes","slug":"/category/recipes/","color":"#c6f6d5","icon":"/static/1de85bbd781531b61bf5a25b83d72d32/recipes.svg"},"author":{"__typename":"AuthorsJson","id":"4acc0efc-1597-5e4a-8305-ff5411d3befc","name":"Steve Grant","slug":"/author/steve-grant/","title":"Product Designer","description":"Sed commodo, est quis maximus fermentum, massa ipsum euismod neque, in varius risus tellus quis lacus. Sed ac bibendum odio.","skills":["Public Relation","Market Analyst","Designer"],"social":[{"name":"Instagram","url":"https://instagram.com/instagram"},{"name":"Twitter","url":"https://twitter.com/twitter"},{"name":"Website","url":"https://example.com"}],"thumbnail":{"__typename":"ImageSharp","regular":{"width":150,"height":150,"src":"/static/05d0ac7130e48a9a86ba018fac3dbe2d/97df7/steve-grant.png","srcSet":"/static/05d0ac7130e48a9a86ba018fac3dbe2d/97df7/steve-grant.png 1x,\n/static/05d0ac7130e48a9a86ba018fac3dbe2d/81b80/steve-grant.png 1.5x,\n/static/05d0ac7130e48a9a86ba018fac3dbe2d/bb938/steve-grant.png 2x"}}},"thumbnail":{"__typename":"ImageSharp","vertical":{"src":"/static/a381cbe123484c239b97a005d5ce4a00/8f7be/image.jpg","srcSet":"/static/a381cbe123484c239b97a005d5ce4a00/8f7be/image.jpg 1x,\n/static/a381cbe123484c239b97a005d5ce4a00/1af80/image.jpg 1.5x,\n/static/a381cbe123484c239b97a005d5ce4a00/1acf6/image.jpg 2x","srcWebp":"/static/a381cbe123484c239b97a005d5ce4a00/03323/image.webp","srcSetWebp":"/static/a381cbe123484c239b97a005d5ce4a00/03323/image.webp 1x,\n/static/a381cbe123484c239b97a005d5ce4a00/c8e9c/image.webp 1.5x,\n/static/a381cbe123484c239b97a005d5ce4a00/e7f4c/image.webp 2x","width":380,"height":290},"hero":{"src":"/static/a381cbe123484c239b97a005d5ce4a00/a8483/image.jpg","srcSet":"/static/a381cbe123484c239b97a005d5ce4a00/a8483/image.jpg 1x","srcWebp":"/static/a381cbe123484c239b97a005d5ce4a00/7330c/image.webp","srcSetWebp":"/static/a381cbe123484c239b97a005d5ce4a00/7330c/image.webp 1x","width":1600,"height":650}}}],"pageInfo":{"pageCount":5,"hasPreviousPage":true,"hasNextPage":true,"currentPage":3},"totalCount":29}},"pageContext":{"slug":"/tag/agency/","limit":6,"skip":12,"collectionType":"tags","paginatePostsPage":false,"basePath":"/","services":{"algolia":false,"mailchimp":false,"disqus":false},"siteUrl":null,"mobileMenu":{"title":"Topics","items":[{"name":"News","slug":"/category/news/"},{"name":"Recipes","slug":"/category/recipes/"},{"name":"Shopping","slug":"/category/shopping/"},{"name":"TV & Movies","slug":"/category/tv-and-movies/"}]},"darkMode":true}},"staticQueryHashes":["618338068","620128445","620128445"]}